<?xml version="1.0" standalone="no"?>
<!DOCTYPE svg PUBLIC "-//W3C//DTD SVG 1.1//EN" "http://www.w3.org/Graphics/SVG/1.1/DTD/svg11.dtd" >
<svg xmlns="http://www.w3.org/2000/svg">
<metadata>Generated by IcoMoon</metadata>
<defs>
<font id="icomoon" horiz-adv-x="1024">
<font-face units-per-em="1024" ascent="960" descent="-64" />
<missing-glyph horiz-adv-x="1024" />
<glyph unicode="&#x20;" horiz-adv-x="512" d="" />
<glyph unicode="&#xe900;" glyph-name="facebook" d="M512 960c-282.283 0-512-229.717-512-512 0-282.281 229.717-512 512-512 282.281 0 512 229.719 512 512 0 282.283-229.719 512-512 512zM512 874.667c236.159 0 426.665-190.507 426.665-426.667 0.106-102.142-36.521-200.916-103.194-278.298-66.673-77.379-158.946-128.208-259.983-143.205v297.087h121.513l19.075 123.434h-140.588v67.415c0 51.2 16.854 96.725 64.77 96.725h77.012v107.691c-13.524 1.835-42.153 5.803-96.256 5.803-112.983 0-179.2-59.648-179.2-195.585v-82.047h-116.139v-123.434h116.139v-296.021c-99.638 16.398-190.198 67.69-255.501 144.709s-101.095 174.751-100.979 275.728c0 236.16 190.507 426.667 426.667 426.667z" />
<glyph unicode="&#xe901;" glyph-name="linkedin" horiz-adv-x="1061" d="M256.352-32h-205.663v662.302h205.663v-662.302zM153.397 720.644c-65.755 0-119.111 54.489-119.111 120.245 0 31.59 12.549 61.887 34.887 84.224s52.634 34.887 84.224 34.887c31.59 0 61.887-12.549 84.224-34.887s34.887-52.634 34.887-84.224c0-65.755-53.356-120.245-119.111-120.245zM1026.074-32h-205.202v322.399c0 76.844-1.558 175.371-106.924 175.371-106.924 0-123.326-83.467-123.326-169.841v-327.929h-205.451v662.302h197.23v-90.343h2.871c27.458 52.045 94.523 106.959 194.575 106.959 208.143 0 246.404-137.072 246.404-315.102v-363.816h-0.176z" />
<glyph unicode="&#xe902;" glyph-name="twitter" horiz-adv-x="1323" d="M1322.667 838.704c-36.834-52.215-82.018-96.726-135.565-133.533 0.529-9.871 0.794-21.028 0.794-33.472 0-69.135-10.573-138.355-31.727-207.657-21.15-69.303-53.461-135.637-96.93-199.006-43.465-63.369-95.245-119.509-155.332-168.418s-132.314-87.906-216.683-116.992c-84.369-29.086-174.793-43.627-271.265-43.627-150.562 0-289.215 38.737-415.959 116.215 22.495-2.385 44.070-3.58 64.725-3.58 125.782 0 238.126 36.928 337.031 110.775-58.647 1.024-111.169 18.231-157.568 51.618s-78.329 76.049-95.791 127.987c17.26-3.132 34.295-4.698 51.106-4.698 24.197 0 48.007 3.008 71.43 9.020-62.587 11.947-114.508 41.66-155.764 89.131-41.254 47.471-61.881 102.264-61.881 164.375v3.201c38.416-20.273 79.393-31.056 122.931-32.35-37.076 23.558-66.472 54.277-88.187 92.159-21.717 37.882-32.576 78.877-32.576 122.985 0 46.519 12.231 89.837 36.692 129.954 68.063-79.604 150.534-143.226 247.415-190.865s200.818-74.098 311.811-79.374c-4.736 18.803-7.108 38.424-7.117 58.865 0 71.37 26.5 132.309 79.501 182.819s116.945 75.764 191.829 75.764c78.4 0 144.439-27.208 198.114-81.624 61.325 11.577 118.75 32.518 172.267 62.821-20.621-61.843-60.348-109.55-119.189-143.122 54.080 6.125 106.044 19.668 155.883 40.629h0.004z" />


</font></defs></svg>