{
  "remoteServiceBaseUrlLocal": "http://appsvr.westeurope.cloudapp.azure.com:91",
  "remoteServiceBaseUrl": "http://appsvr.westeurope.cloudapp.azure.com:91",
  "appBaseUrl": "http://localhost:4200",
  "localeMappings": [
    {
      "from": "pt-BR",
      "to": "pt"
    },
    {
      "from": "zh-CN",
      "to": "zh"
    },
    {
      "from": "he-IL",
      "to": "he"
    }
  ]
}